{
    "products": [
        {
            "id": 1,
            "title": "G-Shock Nam – Quartz (Pin) – Dây Cao Su (GA-110GB-1ADR)",
            "price": "$4.738.000",
            "image": "http://cdn3.dhht.vn/wp-content/uploads/2014/11/6412-GA-110GB-1ADR.jpg",
            "description": "Đồng hồ G-Shock GA-110GB-1ADR với phong cách cá tính mạnh mẽ, tông màu phối hợp bắt mắt giữa đen và vàng, chất liệu là nhựa cao cấp siêu bền, mặt kính khoáng cứng chịu lực và chống thấm nước."
        },
        {
            "id": 2,
            "title": "Citizen CA0341-52A – Nam – Kính Sapphire – Eco-Drive",
            "price": "$13.500.000",
            "image": "http://cdn3.dhht.vn/wp-content/uploads/2015/10/173_CA0341-52A-600x600.jpg",
            "description": "Đồng hồ Citizen CA0341-52A thời trang trẻ trung và thanh lịch sử dụng năng lượng xanh Eco-Drive. Chất liệu Titanium cao cấp có độ cứng cứng gấp 5 lần và nhẹ hơn 40% so với thép không gỉ. Mặt tròn trắng, vạch số phản quang, 6 kim và 1 lịch ngày."
        },
        {
            "id": 3,
            "title": "OP 58062-4DMS-GL-T – Nam – Kính Sapphire – Quartz (Pin)",
            "price": "$4.600.000",
            "image": "http://cdn3.dhht.vn/wp-content/uploads/2016/04/103_58062-4DMS-GL-T-600x600.jpg",
            "description": "Đồng hồ Olym Pianus (Olympia Star) 58062-4DMS-GL-T có mặt số tròn tinh tế với vỏ kim loại màu bạc sáng bóng, kim chỉ xanh và vạch số thanh mãnh nổi bật trên nền số màu trắng trang nhã, dây đeo bằng chất liệu da cao cấp màu đen có vân cá sấu lịch lãm và sang trọng."
        },
        {
            "id": 4,
            "title": "Orient Nam – Automatic (Tự Động) – Dây Da (FDB08002B0)",
            "price": "$5.300.000",
            "image": "http://cdn3.dhht.vn/wp-content/uploads/2014/11/782-FDB08002B0-600x600.jpg",
            "description": "Đồng hồ nam Orient FDB08002B0 với dây đeo bằng da cao cấp màu đen, mặt số tròn nền đen viền đen mạnh mẽ cùng với chữ số vạch mạ đồng, bộ máy Automatic tiên tiến và được thiết kế lộ máy."
        },
        {
            "id": 5,
            "title": "Seiko SRP683K1 – Nam – Automatic (Tự Động)",
            "price": "$6.320.000",
            "image": "http://cdn3.dhht.vn/wp-content/uploads/2015/08/150_SRP683K1-1-600x600.jpg",
            "description": "Đồng hồ thời trang cao cấp Seiko SRP683K1 thuộc dòng Seiko 5 ​​Sports, mặt đồng hồ được thiết kế nền đen mạnh mẽ, với niềng số lớn đặt biệt và 2 ô lịch ngày thứ."
        },
        {
            "id": 6,
            "title": "Titan Nam – Quartz (Pin) – Dây Kim Loại (9344SM01)",
            "price": "$5.269.000",
            "image": "http://cdn3.dhht.vn/wp-content/uploads/2014/11/299-9344SM01-600x600.jpg",
            "description": "Đồng hồ nam Titan 9344SM01 với mặt đồng hồ nền đen cao cấp, niềng số mạnh mẽ, chữ số vạch trắng đơn giản, kiểu dáng thể thao 6 kim chỉ, mặt kính cứng chịu lực cao, chất liệu thép không gỉ."
        },
        {
            "id": 7,
            "title": "Pulsar Nam – Quartz (Pin) – Dây Kim Loại (PU2047X1)",
            "price": "$5.101.000 ",
            "image": "http://cdn3.dhht.vn/wp-content/uploads/2014/11/6768-PU2047X1-600x600.jpg",
            "description": "Đồng hồ thể thao cao cấp Pulsar PU2047X1, kiểu dáng mạnh mẽ nam tính với mặt nền đen viền số đen cùng chữ số vạch xanh nổi bật, 6 kim chỉ lớn và 1 lịch ngày, chất liệu là thép không gỉ cao cấp."
        },
        {
            "id": 8,
            "title": "Skagen Nam – Quartz (Pin) – Dây Da (SKW6096)",
            "price": "$5.650.000",
            "image": "http://cdn3.dhht.vn/wp-content/uploads/2014/09/7888-SKW6096-600x600.jpg",
            "description": "Đồng hồ dây da nam Skagen SKW6096, mặt đồng hồ có nền đen, vỏ bằng thép không gỉ, dây đeo được làm bằng da cao cấp màu đen, kiểu dáng thể thao 6 kim chỉ giờ, 3 ô phụ."
        },
        {
            "id": 9,
            "title": "Timex Nam – Quartz (Pin) – Dây Kim Loại (T2N161)",
            "price": "$3.916.000",
            "image": "http://cdn3.dhht.vn/wp-content/uploads/2014/11/5173-T2N161-600x600.jpg",
            "description": "Đồng hồ phong cách thể thao Timex T2N161 với 6 kim chỉ tinh tế, mặt nền có màu xanh ấn tượng, niềng số có răng cưa, mặt kính khoáng cứng chịu lực, chất liệu làm bằng thép không gỉ."
        },
        {
            "id": 10,
            "title": "Police Nam – Quartz (Pin) – Dây Kim Loại (13896JS/02M)",
            "price": "$4.120.000",
            "image": "http://cdn3.dhht.vn/wp-content/uploads/2014/09/5360-13896JS-02M-600x600.jpg",
            "description": "Kiểu dáng mạnh mẽ nam tính với mặt đồng hồ màu đen tròn kết hợp với chữ số vạch trắng lớn rõ ràng, Police 13896JS/02M mạnh mẽ được làm bằng thép không gỉ, 3 kim chỉ giờ và 1 lịch ngày."
        },
        {
            "id": 11,
            "title": "Calvin Klein K5R31141 – Nam – Quartz (Pin) – Dây Kim Loại",
            "price": "$8.190.000",
            "image": "http://cdn3.dhht.vn/wp-content/uploads/2016/06/20_K5R31141-600x600.jpg",
            "description": "Đồng hồ Calvin Klein K5R31141 có mặt số tròn tinh tế, vỏ và dây đeo kim loại màu bạc sang trọng, kim chỉ và vạch số thanh mãnh sắc nét nổi bật trên nền số màu đen có vân ngang độc đáo, tạo nên phong cách lịch thiệp sang trọng cho phái mạnh."
        },
        {
            "id": 12,
            "title": "Doxa D151RMW – Nữ – Kính Sapphire – Quartz (Pin) – Dây Đá",
            "price": "$45.490.000",
            "image": "http://cdn3.dhht.vn/wp-content/uploads/2017/04/29_D151RMW-1-600x600.jpg",
            "description": "Mẫu Doxa nữ D151RMW nổi bật nền mặt số trắng xà cừ, mặt đồng hồ tròn với viền ngoài bằng đá Ceramic trắng đính kèm 12 viên ngọc trai sang trọng dành cho phái nữ."
        }
    ]
}